Back Testing and Hyperparameter Tuning
…
When prep_models() is ran, hyperparameters and back test
splits are calculated and written to disk. You can get the results by
calling get_prepped_models().

#> Loading required package: modeltime
#> Finn Submission Info
#> • Experiment Name: finnts_fcst
#> • Run Name: get_prepped_models-20241025T173115Z
#> 
#> ℹ Prepping Data✔ Prepping Data [4s]
#> ℹ Creating Model Workflows✔ Creating Model Workflows [364ms]
#> ℹ Creating Model Hyperparameters✔ Creating Model Hyperparameters [426ms]
#> ℹ Creating Train Test Splits✔ Creating Train Test Splits [720ms]
#> # A tibble: 31 × 4
#>    Run_Type        Train_Test_ID Train_End  Test_End  
#>    <chr>                   <dbl> <date>     <date>    
#>  1 Future_Forecast             1 2015-06-01 2015-12-01
#>  2 Back_Test                   2 2015-05-01 2015-06-01
#>  3 Back_Test                   3 2015-04-01 2015-06-01
#>  4 Back_Test                   4 2015-03-01 2015-06-01
#>  5 Back_Test                   5 2015-02-01 2015-06-01
#>  6 Back_Test                   6 2015-01-01 2015-06-01
#>  7 Back_Test                   7 2014-12-01 2015-06-01
#>  8 Back_Test                   8 2014-11-01 2015-05-01
#>  9 Back_Test                   9 2014-10-01 2015-04-01
#> 10 Validation                 10 2014-09-01 2014-10-01
#> # ℹ 21 more rows
…
