Quick Start Guide
…
Column headers should contain only letters, numbers, and underscores. They should also start with a letter, not a number. These requirements ensure that R/Python handle your data frame correctly without any errors.

External regressors are optional, they’re not required to produce a Finn forecast. To learn more about how to use them, please check out the vignette on external regressors.

A good example to use when producing your first Finn forecast is to leverage existing data examples from the timetk package. Let’s take a monthly example and trim it down to speed up the run time of your first Finn forecast.

library(finnts)

hist_data <- timetk::m4_monthly %>%
  dplyr::filter(date >= "2010-01-01") %>%
  dplyr::rename(Date = date) %>%
  dplyr::mutate(id = as.character(id))

print(hist_data)
#> # A tibble: 264 x 3
#>    id    Date       value
#>    <chr> <date>     <dbl>
#>  1 M1    2010-01-01  9480
#>  2 M1    2010-02-01  8800
#>  3 M1    2010-03-01  8810
#>  4 M1    2010-04-01  7690
#>  5 M1    2010-05-01  7710
#>  6 M1    2010-06-01  9660
#>  7 M1    2010-07-01 11870
#>  8 M1    2010-08-01 12920
#>  9 M1    2010-09-01 10890
#> 10 M1    2010-10-01  9500
#> # ... with 254 more rows
…
